<svg width="199" height="101" viewBox="0 0 199 101" fill="none" xmlns="http://www.w3.org/2000/svg">
<path d="M86.8362 8.1499H92.1472L98.0338 17.6197L103.921 8.1499H109.231V30.546H104.337V15.9242L98.0338 25.4909H97.9054L91.6667 16.0212V30.546H86.8353L86.8362 8.1499Z" fill="white"/>
<path d="M85.311 48.9104V48.8466C85.311 42.4795 90.111 37.2646 96.9891 37.2646C101.213 37.2646 103.74 38.6728 105.819 40.7203L102.684 44.3358C100.956 42.7678 99.1956 41.8078 96.9567 41.8078C93.1814 41.8078 90.4613 44.9437 90.4613 48.7828V48.8466C90.4613 52.6857 93.1176 55.8854 96.9567 55.8854C99.5161 55.8854 101.084 54.8616 102.844 53.2622L105.978 56.4296C103.676 58.8929 101.116 60.4294 96.7969 60.4294C90.2062 60.4277 85.3102 55.3412 85.311 48.9104Z" fill="white"/>
<path d="M105.815 48.9438V48.88C105.815 42.513 110.839 37.2981 117.75 37.2981C124.659 37.2981 129.619 42.4492 129.619 48.8163V48.88C129.619 55.2471 124.597 60.462 117.685 60.462C110.774 60.4611 105.815 55.31 105.815 48.9438ZM124.468 48.9438V48.88C124.468 45.0409 121.653 41.8412 117.685 41.8412C113.718 41.8412 110.966 44.9772 110.966 48.8163V48.88C110.966 52.7191 113.782 55.9188 117.75 55.9188C121.717 55.9179 124.468 52.782 124.468 48.9438ZM119.604 30.5781L123.796 32.402L119.445 35.6008H115.733L119.604 30.5781Z" fill="white"/>
<path d="M131.917 37.6494H141.068C146.411 37.6494 149.643 40.8168 149.643 45.3923V45.456C149.643 50.6395 145.611 53.3264 140.588 53.3264H136.844V60.0455H131.917V37.6494ZM140.748 48.9431C143.211 48.9431 144.652 47.4712 144.652 45.5521V45.4883C144.652 43.281 143.116 42.0974 140.652 42.0974H136.844V48.944L140.748 48.9431Z" fill="white"/>
<path d="M151.311 37.6494H156.238V60.0455H151.311V37.6494Z" fill="white"/>
<path d="M167.029 37.4883H171.573L181.171 60.0442H176.019L173.971 55.0206H164.501L162.453 60.0442H157.43L167.029 37.4883ZM172.213 50.6696L169.237 43.4072L166.262 50.6696H172.213Z" fill="white"/>
<path d="M180.96 56.7814L183.872 53.2935C185.888 54.9575 187.999 56.0136 190.558 56.0136C192.574 56.0136 193.789 55.2135 193.789 53.9014V53.8377C193.789 52.5894 193.022 51.95 189.279 50.99C184.768 49.8378 181.856 48.5905 181.856 44.1434V44.0796C181.856 40.0169 185.12 37.3291 189.694 37.3291C192.958 37.3291 195.742 38.3529 198.013 40.1768L195.454 43.8883C193.47 42.5125 191.517 41.681 189.631 41.681C187.742 41.681 186.752 42.5449 186.752 43.6324V43.6962C186.752 45.168 187.712 45.6476 191.582 46.6399C196.125 47.8235 198.685 49.4552 198.685 53.359V53.4228C198.685 57.8698 195.293 60.3655 190.461 60.3655C187.071 60.3646 183.647 59.181 180.96 56.7814Z" fill="white"/>
<path d="M117.717 8.1499H112.79V30.5451H117.02L117.717 29.6419V8.1499Z" fill="white"/>
<path d="M137.305 26.0666L126.139 26.0657V8.1499H121.213V29.0226L124.621 30.5067L124.71 30.5451H137.305V26.0666Z" fill="white"/>
<path d="M0 0V68.1893H73.6452V0H0ZM22.4834 60.0446H8.14466V8.14466H22.4834L33.239 17.8774L22.4834 27.6075V60.0446ZM65.5006 60.0446H51.1618V27.6075L36.8222 40.5818L26.0675 30.8508L51.1618 8.14466H65.5006V60.0446Z" fill="white"/>
<path d="M47.59 90.9404H48.5124L46.3181 99.1096H45.3957L47.59 90.9404Z" fill="white"/>
<path d="M50.1677 93.0762H51.0666L50.8098 94.0562C51.3583 93.4378 51.9305 92.9478 52.8171 92.9478C53.8321 92.9478 54.3693 93.6125 54.5327 94.313C55.0699 93.485 55.8866 92.9478 56.9602 92.9478C58.0451 92.9478 58.8042 93.6946 58.8042 94.8145C58.8042 95.0949 58.7098 95.4329 58.6408 95.7482L57.742 99.1095H56.8431L57.7656 95.6906C57.8119 95.4923 57.8477 95.2119 57.8477 95.0136C57.8477 94.2318 57.3803 93.7531 56.5986 93.7531C55.7111 93.7531 54.8131 94.5812 54.5091 95.7019L53.6103 99.1095H52.7114L53.6216 95.6906C53.6801 95.4923 53.7151 95.2119 53.7151 95.0136C53.7151 94.2318 53.2364 93.7531 52.4546 93.7531C51.5671 93.7531 50.6691 94.5812 50.3651 95.7019L49.4549 99.1095H48.5561L50.1677 93.0762Z" fill="white"/>
<path d="M61.25 93.0762H62.1489L61.8685 94.1148C62.452 93.4614 63.1875 92.9478 64.1562 92.9478C65.5215 92.9478 66.5488 93.9628 66.5488 95.5037C66.5488 97.6394 64.9267 99.2502 63.1648 99.2502C61.927 99.2502 61.2387 98.5496 60.9006 97.7565L60.0367 100.978H59.1379L61.25 93.0762ZM65.6028 95.5849C65.6028 94.465 64.9144 93.7409 63.8985 93.7409C62.5559 93.7409 61.2142 95.1062 61.2142 96.5772C61.2142 97.6272 61.9733 98.4561 63.0818 98.4561C64.5179 98.4561 65.6028 97.1258 65.6028 95.5849Z" fill="white"/>
<path d="M68.9378 93.0764H69.8367L69.4279 94.6522C70.1634 93.6023 71.0972 92.9017 72.2991 92.9716L72.0423 93.9403H71.9847C70.6656 93.9403 69.3466 94.9091 68.868 96.7295L68.2268 99.1107H67.3279L68.9378 93.0764Z" fill="white"/>
<path d="M73.2198 96.6471C73.2198 97.7434 73.9195 98.4675 75.0402 98.4675C75.822 98.4675 76.3479 98.1993 76.8956 97.7556L77.3629 98.3504C76.7681 98.8518 76.0553 99.2493 74.9931 99.2493C73.3945 99.2493 72.321 98.2107 72.321 96.682C72.321 94.838 73.8147 92.9478 75.8334 92.9478C77.3629 92.9478 78.1674 93.9977 78.1674 95.2582C78.1674 95.667 78.0862 96.0636 77.9456 96.4374H73.2303C73.2198 96.5073 73.2198 96.5772 73.2198 96.6471ZM77.2459 95.7133C77.2686 95.5962 77.2922 95.4574 77.2922 95.2582C77.2922 94.4292 76.8257 93.706 75.7871 93.706C74.5965 93.706 73.6976 94.6048 73.3596 95.7133H77.2459Z" fill="white"/>
<path d="M78.5623 98.188L79.1458 97.6045C79.7992 98.2343 80.5225 98.4911 81.2466 98.4911C81.935 98.4911 82.577 98.0945 82.577 97.4874C82.577 97.09 82.3088 96.7991 81.4336 96.4602C80.3478 96.04 79.7293 95.6434 79.7293 94.8031C79.7293 93.7758 80.616 92.9478 82.0162 92.9478C82.9037 92.9478 83.744 93.3443 84.2454 93.7758L83.7196 94.3943C83.2182 93.9864 82.5875 93.6946 81.9341 93.6946C81.0815 93.6946 80.6264 94.1497 80.6264 94.652C80.6264 95.0486 80.871 95.3054 81.8284 95.6784C82.9133 96.1221 83.4741 96.5536 83.4741 97.3363C83.4741 98.4561 82.4477 99.2379 81.1636 99.2379C80.2307 99.2388 79.262 98.8894 78.5623 98.188Z" fill="white"/>
<path d="M84.2314 98.188L84.815 97.6045C85.4683 98.2343 86.1916 98.4911 86.9158 98.4911C87.6041 98.4911 88.2461 98.0945 88.2461 97.4874C88.2461 97.09 87.978 96.7991 87.1027 96.4602C86.0169 96.04 85.3985 95.6434 85.3985 94.8031C85.3985 93.7758 86.2851 92.9478 87.6853 92.9478C88.5728 92.9478 89.4131 93.3443 89.9145 93.7758L89.3887 94.3943C88.8873 93.9864 88.2566 93.6946 87.6032 93.6946C86.7507 93.6946 86.2956 94.1497 86.2956 94.652C86.2956 95.0486 86.5401 95.3054 87.4975 95.6784C88.5824 96.1221 89.1432 96.5536 89.1432 97.3363C89.1432 98.4561 88.1168 99.2379 86.8328 99.2379C85.8999 99.2388 84.9311 98.8894 84.2314 98.188Z" fill="white"/>
<path d="M90.3084 97.5693C90.3084 96.2153 91.4405 95.3873 92.9927 95.3873C93.7981 95.3873 94.5572 95.5506 95.1285 95.7139L95.1748 95.5506C95.2219 95.3873 95.2455 95.1767 95.2455 95.0134C95.2455 94.2429 94.7083 93.7992 93.6225 93.7992C92.9814 93.7992 92.4555 93.9163 91.9183 94.1145L91.755 93.3555C92.3621 93.1222 92.9805 92.9825 93.7623 92.9825C95.2796 92.9825 96.1313 93.6944 96.1313 94.8614C96.1313 95.106 96.085 95.41 96.0142 95.6904L95.104 99.1093H94.2165L94.4611 98.1633C93.9125 98.8053 93.1657 99.2368 92.2092 99.2368C91.1959 99.2386 90.3084 98.6428 90.3084 97.5693ZM94.8603 96.7412L94.9774 96.321C94.4515 96.1804 93.7745 96.0529 93.0277 96.0529C91.9663 96.0529 91.2308 96.6364 91.2308 97.4645C91.2308 98.1056 91.7218 98.5258 92.5036 98.5258C93.5186 98.5267 94.5685 97.8025 94.8603 96.7412ZM92.4328 92.1081C92.8172 91.2319 93.1674 90.8939 93.7282 90.8939C94.2419 90.8939 94.7895 91.3612 95.1983 91.3612C95.5015 91.3612 95.6657 91.2092 95.9103 90.7891L96.4588 90.9411C96.0736 91.8277 95.7356 92.1666 95.1634 92.1666C94.6498 92.1666 94.1012 91.6993 93.6933 91.6993C93.3902 91.6993 93.226 91.8513 92.9814 92.2714L92.4328 92.1081Z" fill="white"/>
<path d="M97.3787 96.5423C97.3787 94.6633 99.0008 92.9478 100.927 92.9478C102.584 92.9478 103.681 94.0798 103.681 95.6434C103.681 97.5687 102.012 99.2502 100.121 99.2502C98.4644 99.2502 97.3787 98.1059 97.3787 96.5423ZM102.76 95.6784C102.76 94.4528 101.989 93.7409 100.869 93.7409C99.4803 93.7409 98.2906 95.1176 98.2906 96.5187C98.2906 97.7442 99.0602 98.4448 100.181 98.4448C101.534 98.4448 102.76 97.1135 102.76 95.6784Z" fill="white"/>
<path d="M108.321 96.5423C108.321 94.6633 109.943 92.9478 111.869 92.9478C113.527 92.9478 114.624 94.0798 114.624 95.6434C114.624 97.5687 112.954 99.2502 111.064 99.2502C109.406 99.2502 108.321 98.1059 108.321 96.5423ZM113.701 95.6784C113.701 94.4528 112.931 93.7409 111.811 93.7409C110.422 93.7409 109.232 95.1176 109.232 96.5187C109.232 97.7442 110.002 98.4448 111.123 98.4448C112.476 98.4448 113.701 97.1135 113.701 95.6784Z" fill="white"/>
<path d="M117.001 93.0764H117.9L117.491 94.6522C118.227 93.6023 119.161 92.9017 120.363 92.9716L120.106 93.9403H120.047C118.728 93.9403 117.41 94.9091 116.931 96.7295L116.29 99.1107H115.391L117.001 93.0764Z" fill="white"/>
<path d="M121.784 93.076H122.683L121.06 99.1102H120.161L121.784 93.076ZM122.344 90.7646H123.371L123.103 91.7561H122.076L122.344 90.7646Z" fill="white"/>
<path d="M122.81 99.95L123.371 99.3202C124.012 99.8687 124.829 100.23 125.751 100.23C126.51 100.23 127.083 99.9858 127.444 99.6119C127.817 99.2503 128.028 98.7829 128.202 98.1645L128.366 97.5583C127.759 98.1767 127.047 98.6432 126.055 98.6432C124.794 98.6432 123.603 97.8151 123.603 96.3677C123.603 94.3603 125.296 92.9487 126.988 92.9487C128.284 92.9487 128.867 93.672 129.205 94.3953L129.555 93.0763H130.454L129.078 98.2466C128.821 99.1804 128.529 99.7167 128.098 100.149C127.537 100.71 126.79 101.001 125.764 101.001C124.654 101 123.557 100.603 122.81 99.95ZM128.891 95.4452C128.891 94.5586 128.191 93.741 127.035 93.741C125.751 93.741 124.549 94.8032 124.549 96.2506C124.549 97.3242 125.39 97.8736 126.311 97.8736C127.677 97.8727 128.891 96.6821 128.891 95.4452Z" fill="white"/>
<path d="M132.552 93.076H133.45L131.827 99.1102H130.929L132.552 93.076ZM133.112 90.7646H134.139L133.871 91.7561H132.843L133.112 90.7646Z" fill="white"/>
<path d="M135.539 93.0762H136.438L136.181 94.0562C136.73 93.4378 137.36 92.9478 138.282 92.9478C139.449 92.9478 140.208 93.671 140.208 94.8145C140.208 95.0949 140.137 95.4329 140.056 95.7482L139.169 99.1095H138.27L139.18 95.6906C139.238 95.4923 139.274 95.2119 139.274 95.0136C139.274 94.2196 138.76 93.7531 137.92 93.7531C136.987 93.7531 136.054 94.5585 135.738 95.7019L134.828 99.1095H133.929L135.539 93.0762Z" fill="white"/>
<path d="M141.102 97.5688C141.102 96.2148 142.234 95.3867 143.786 95.3867C144.591 95.3867 145.35 95.5501 145.922 95.7134L145.968 95.5501C146.015 95.3867 146.039 95.1762 146.039 95.0129C146.039 94.2424 145.501 93.7987 144.416 93.7987C143.774 93.7987 143.249 93.9157 142.711 94.114L142.548 93.3549C143.155 93.1217 143.774 92.9819 144.555 92.9819C146.073 92.9819 146.924 93.6938 146.924 94.8609C146.924 95.1055 146.878 95.4094 146.807 95.6898L145.897 99.1088H145.01L145.254 98.1628C144.706 98.8048 143.959 99.2363 143.002 99.2363C141.989 99.2381 141.102 98.6423 141.102 97.5688ZM145.653 96.7407L145.77 96.3205C145.245 96.1799 144.568 96.0523 143.821 96.0523C142.759 96.0523 142.024 96.6359 142.024 97.4639C142.024 98.1051 142.515 98.5253 143.297 98.5253C144.312 98.5261 145.362 97.802 145.653 96.7407Z" fill="white"/>
<path d="M150.168 90.5898H151.067L148.779 99.1092H147.88L150.168 90.5898Z" fill="white"/>
<path d="M156.793 91.4305H155.649L155.79 90.9404H158.602L158.462 91.4305H157.318L156.443 94.5349H155.929L156.793 91.4305ZM159.408 90.9404H159.898L160.657 92.9128L162.454 90.9404H163.049L162.034 94.5349H161.531L162.313 91.7808L160.505 93.7296H160.446L159.687 91.7808L158.906 94.5349H158.392L159.408 90.9404Z" fill="white"/>
</svg>
